Chapter 9 Box Plots | Data Visualization with ggplot2
…
two horizontal lines, called whiskers, extend from the front and back of the box

the front whisker goes from Q1 to the smallest non-outlier in the data set, and the back whisker goes from Q3 to the largest non-outlier

if the data set includes one or more outliers, they are plotted separately as points on the chart

9.3 Data

We are going to use two different data sets in this chapter. Both the data sets have the same data but are in
different formats.

daily_returns <- readr::read_csv('https://raw.githubusercontent.com/rsquaredacademy/datasets/master/tickers.csv')
daily_returns

## # A tibble: 250 x 5
##       AAPL   AMZN      FB    GOOG    MSFT
##      <dbl>  <dbl>   <dbl>   <dbl>   <dbl>
##  1  1.38    24.2   2.12    22.4    1.12  
##  2  2.83     3.25 -0.860    5.99   0.767 
##  3 -0.0394   9.91  1.45     6.75   0.973 
##  4  0.108    3.76 -0.770  -10.7   -0.285 
##  5  1.64    19.8   4.75     8.66   0.501 
##  6  0.0689   5.33 -0.300   -0.930  0.256 
##  7 -0.561   -5.21 -0.630   -7.28  -0.708 
##  8  0.551    0.25 -0.460    0.690  0.128 
##  9 -0.217  -13.6   0.0300   6.56   0.0786
## 10 -0.108   -4.25  0.460    2.60   0.472 
## # ... with 240 more rows
…
9.5 Compare Distributions

9.5.1 Data

For the rest of the chapter, we will use the below data set. Instead of 5 columns,
we have two columns. One for the stock names and another for returns.

tidy_returns <- 
  read_csv('https://raw.githubusercontent.com/rsquaredacademy/datasets/master/tidy_tickers.csv',
  col_types = list(col_factor(levels = c('AAPL', 'AMZN', 'FB', 'GOOG', 'MSFT')), col_double()))
tidy_returns

## # A tibble: 1,254 x 2
##    stock returns
##    <fct>   <dbl>
##  1 AAPL   1.38  
##  2 AAPL   2.83  
##  3 AAPL  -0.0394
##  4 AAPL   0.108 
##  5 AAPL   1.64  
##  6 AAPL   0.0689
##  7 AAPL  -0.561 
##  8 AAPL   0.551 
##  9 AAPL  -0.217 
## 10 AAPL  -0.108 
## # ... with 1,244 more rows
…
